{"status":0,"data":{"queryCondition":{"ascend":false,"totalSize":86,"pageSize":20,"currentPage":1,"totalPage":5,"firstResult":0,"isQueryAll":false},"target":[{"userId":1061,"showNum":-1,"clickNum":-1,"convertNum":-1,"consume":-1,"clickRatio":"-","cpc":"-","convertRatio":0,"planId":52300424,"planName":"0709-2","isPaused":0,"frontState":4,"isPromotionAbnormal":true,"planType":0,"budget":-1,"budgetUnlimited":true,"ideaShowMode":1,"period":"100-124;200-224;300-324;400-424;500-524;600-624;700-724","region":"使用账户地域设置","useAccountRegion":1,"useAllRegion":0,"useIntentLocate":1,"ipBlack":"222.161.70.13\n111.161.70.14\n111.161.70.15\n111.161.70.16\n114.255.51.250\n221.122.121.142\n222.130.13.49\n61.148.52.226","negWord":"","negQuery":"","exbudget":0,"targetUserTracking":1,"ocpcConfig":{"id":9453,"planId":52300424,"optTarget":"OPT_TARGET_CPA","convertId":3597,"convertType":15,"convertName":"啊啊啊","convertDataYuan":80,"phase":1,"paused":false},"id":52300424,"level":2},{"userId":1061,"showNum":-1,"clickNum":-1,"convertNum":-1,"consume":-1,"clickRatio":"-","cpc":"-","convertRatio":0,"planId":52300425,"planName":"0709-3","isPaused":0,"frontState":4,"isPromotionAbnormal":false,"planType":0,"budget":-1,"budgetUnlimited":true,"ideaShowMode":1,"period":"100-124;200-224;300-324;400-424;500-524;600-624;700-724","region":"使用账户地域设置","useAccountRegion":1,"useAllRegion":0,"useIntentLocate":1,"ipBlack":"192.168.3.0\n192.168.3.1\n192.168.3.2\n192.168.3.3\n192.168.3.4\n192.168.3.5\n192.168.3.6\n192.168.3.7\n192.168.3.8\n192.168.3.9\n192.168.3.10\n192.168.3.11\n192.168.3.12\n192.168.3.13\n192.168.3.14\n192.168.3.15\n192.168.3.16\n192.168.3.17\n192.168.3.18\n192.168.3.19\n192.168.3.20\n192.168.3.21\n192.168.3.22\n192.168.3.23\n192.168.3.24\n192.168.3.25\n192.168.3.26\n192.168.3.27\n192.168.3.28\n192.168.3.29\n192.168.3.30\n192.168.3.31\n192.168.3.32\n192.168.3.33\n192.168.3.34\n192.168.3.35\n192.168.3.36\n192.168.3.37\n192.168.3.38\n192.168.3.39\n192.168.3.40\n192.168.3.41\n192.168.3.42\n192.168.3.43\n192.168.3.44\n192.168.3.45\n192.168.3.46\n192.168.3.47\n192.168.3.48\n192.168.3.49\n192.168.3.50\n192.168.3.51\n192.168.3.52\n192.168.3.53\n192.168.3.54\n192.168.3.55\n192.168.3.56\n192.168.3.57\n192.168.3.58\n192.168.3.59\n192.168.3.60\n192.168.3.61\n192.168.3.62\n192.168.3.63\n192.168.3.64\n192.168.3.65\n192.168.3.66\n192.168.3.67\n192.168.3.68\n192.168.3.69\n192.168.3.70\n192.168.3.71\n192.168.3.72\n192.168.3.73\n192.168.3.74\n192.168.3.75\n192.168.3.76\n192.168.3.77\n192.168.3.78\n192.168.3.79\n192.168.3.80\n192.168.3.81\n192.168.3.82\n192.168.3.83\n192.168.3.84\n192.168.3.85\n192.168.3.86\n192.168.3.87\n192.168.3.88\n192.168.3.89\n192.168.3.90\n192.168.3.91\n192.168.3.92\n192.168.3.93\n192.168.3.94\n192.168.3.95\n192.168.3.96\n192.168.3.97\n192.168.3.98\n192.168.3.99\n192.168.3.100\n192.168.3.101\n192.168.3.102\n192.168.3.103\n192.168.3.104\n192.168.3.105\n192.168.3.106\n192.168.3.107\n192.168.3.108\n192.168.3.109\n192.168.3.110\n192.168.3.111\n192.168.3.112\n192.168.3.113\n192.168.3.114\n192.168.3.115\n192.168.3.116\n192.168.3.117\n192.168.3.118\n192.168.3.119\n192.168.3.120\n192.168.3.121\n192.168.3.122\n192.168.3.123\n192.168.3.124\n192.168.3.125\n192.168.3.126\n","negWord":"","negQuery":"","exbudget":0,"targetUserTracking":1,"ocpcConfig":{"id":9452,"planId":52300425,"optTarget":"OPT_TARGET_CPA","convertId":3594,"convertType":14,"convertName":"买买买","convertDataYuan":60,"phase":1,"paused":false},"id":52300425,"level":2},{"userId":1061,"showNum":-1,"clickNum":-1,"convertNum":-1,"consume":-1,"clickRatio":"-","cpc":"-","convertRatio":0,"planId":52300426,"planName":"0709-4","isPaused":0,"frontState":4,"isPromotionAbnormal":false,"planType":0,"budget":-1,"budgetUnlimited":true,"ideaShowMode":1,"period":"100-124;200-224;300-324;400-424;500-524;600-624;700-724","region":"使用账户地域设置","useAccountRegion":1,"useAllRegion":0,"useIntentLocate":1,"ipBlack":"222.161.70.13\n111.161.70.14\n111.161.70.15\n111.161.70.16\n114.255.51.250\n221.122.121.142\n222.130.13.49\n61.148.52.226","negWord":"","negQuery":"","exbudget":0,"targetUserTracking":1,"ocpcConfig":{"planId":0,"optTarget":"OPT_TARGET_CPC","convertId":0,"convertType":0,"convertDataYuan":0,"phase":0,"paused":false},"id":52300426,"level":2},{"userId":1061,"showNum":-1,"clickNum":-1,"convertNum":-1,"consume":-1,"clickRatio":"-","cpc":"-","convertRatio":0,"planId":52300427,"planName":"0709-5","isPaused":0,"frontState":4,"isPromotionAbnormal":false,"planType":0,"budget":-1,"budgetUnlimited":true,"ideaShowMode":1,"period":"100-124;200-224;300-324;400-424;500-524;600-624;700-724","region":"使用账户地域设置","useAccountRegion":1,"useAllRegion":0,"useIntentLocate":1,"ipBlack":"222.161.70.13\n111.161.70.14\n111.161.70.15\n111.161.70.16\n114.255.51.250\n221.122.121.142\n222.130.13.49\n61.148.52.226","negWord":"","negQuery":"","exbudget":0,"targetUserTracking":1,"ocpcConfig":{"planId":0,"optTarget":"OPT_TARGET_CPC","convertId":0,"convertType":0,"convertDataYuan":0,"phase":0,"paused":false},"id":52300427,"level":2},{"userId":1061,"showNum":-1,"clickNum":-1,"convertNum":-1,"consume":-1,"clickRatio":"-","cpc":"-","convertRatio":0,"planId":52600004,"planName":"1009","isPaused":0,"frontState":4,"isPromotionAbnormal":false,"planType":0,"budget":-1,"budgetUnlimited":true,"ideaShowMode":1,"period":"100-124;200-224;300-324;400-424;500-524;600-624;700-724","region":"使用账户地域设置","useAccountRegion":1,"useAllRegion":0,"useIntentLocate":1,"ipBlack":"","negWord":"","negQuery":"","exbudget":0,"targetUserTracking":1,"ocpcConfig":{"planId":0,"optTarget":"OPT_TARGET_CPC","convertId":0,"convertType":0,"convertDataYuan":0,"phase":0,"paused":false},"id":52600004,"level":2},{"userId":1061,"showNum":-1,"clickNum":-1,"convertNum":-1,"consume":-1,"clickRatio":"-","cpc":"-","convertRatio":0,"planId":52400038,"planName":"11","isPaused":0,"frontState":4,"isPromotionAbnormal":false,"planType":0,"budget":-1,"budgetUnlimited":true,"ideaShowMode":1,"period":"100-124;200-224;300-324;400-424;500-524;600-624;700-724","region":"使用账户地域设置","useAccountRegion":1,"useAllRegion":0,"useIntentLocate":1,"ipBlack":"192.168.2.0\n192.168.2.1\n192.168.2.2\n192.168.2.3\n192.168.2.4\n192.168.2.5\n192.168.2.6\n192.168.2.7\n192.168.2.8\n192.168.2.9\n192.168.2.10\n192.168.2.11\n192.168.2.12\n192.168.2.13\n192.168.2.14\n192.168.2.15\n192.168.2.16\n192.168.2.17\n192.168.2.18\n192.168.2.19\n192.168.2.20\n192.168.2.21\n192.168.2.22\n192.168.2.23\n192.168.2.24\n192.168.2.25\n192.168.2.26\n192.168.2.27\n192.168.2.28\n192.168.2.29\n192.168.2.30\n192.168.2.31\n192.168.2.32\n192.168.2.33\n192.168.2.34\n192.168.2.35\n192.168.2.36\n192.168.2.37\n192.168.2.38\n192.168.2.39\n192.168.2.40\n192.168.2.41\n192.168.2.42\n192.168.2.43\n192.168.2.44\n192.168.2.45\n192.168.2.46\n192.168.2.47\n192.168.2.48\n192.168.2.49\n192.168.2.50\n192.168.2.51\n192.168.2.52\n192.168.2.53\n192.168.2.54\n192.168.2.55\n192.168.2.56\n192.168.2.57\n192.168.2.58\n192.168.2.59\n192.168.2.60\n192.168.2.61\n192.168.2.62\n192.168.2.63\n192.168.2.64\n192.168.2.65\n192.168.2.66\n192.168.2.67\n192.168.2.68\n192.168.2.69\n192.168.2.70\n192.168.2.71\n192.168.2.72\n192.168.2.73\n192.168.2.74\n192.168.2.75\n192.168.2.76\n192.168.2.77\n192.168.2.78\n192.168.2.79\n192.168.2.80\n192.168.2.81\n192.168.2.82\n192.168.2.83\n192.168.2.84\n192.168.2.85\n192.168.2.86\n192.168.2.87\n192.168.2.88\n192.168.2.89\n192.168.2.90\n192.168.2.91\n192.168.2.92\n192.168.2.93\n192.168.2.94\n192.168.2.95\n192.168.2.96\n192.168.2.97\n192.168.2.98\n192.168.2.99\n192.168.2.100\n192.168.2.101\n192.168.2.102\n192.168.2.103\n192.168.2.104\n192.168.2.105\n192.168.2.106\n192.168.2.107\n192.168.2.108\n192.168.2.109\n192.168.2.110\n192.168.2.111\n192.168.2.112\n192.168.2.113\n192.168.2.114\n192.168.2.115\n192.168.2.116\n192.168.2.117\n192.168.2.118\n192.168.2.119\n192.168.2.120\n192.168.2.121\n192.168.2.122\n192.168.2.123\n192.168.2.124\n192.168.2.125\n192.168.2.126\n","negWord":"","negQuery":"","exbudget":0,"targetUserTracking":1,"ocpcConfig":{"planId":0,"optTarget":"OPT_TARGET_CPC","convertId":0,"convertType":0,"convertDataYuan":0,"phase":0,"paused":false},"id":52400038,"level":2},{"userId":1061,"showNum":-1,"clickNum":-1,"convertNum":-1,"consume":-1,"clickRatio":"-","cpc":"-","convertRatio":0,"planId":52400043,"planName":"12","isPaused":0,"frontState":4,"isPromotionAbnormal":false,"planType":0,"budget":-1,"budgetUnlimited":true,"ideaShowMode":1,"period":"100-124;200-224;300-324;400-424;500-524;600-624;700-724","region":"使用账户地域设置","useAccountRegion":1,"useAllRegion":0,"useIntentLocate":1,"ipBlack":"222.161.70.13\n111.161.70.14\n111.161.70.15\n111.161.70.16\n114.255.51.250\n221.122.121.142\n222.130.13.49\n61.148.52.226","negWord":"","negQuery":"","exbudget":0,"targetUserTracking":1,"ocpcConfig":{"planId":0,"optTarget":"OPT_TARGET_CPC","convertId":0,"convertType":0,"convertDataYuan":0,"phase":0,"paused":false},"id":52400043,"level":2},{"userId":1061,"showNum":-1,"clickNum":-1,"convertNum":-1,"consume":-1,"clickRatio":"-","cpc":"-","convertRatio":0,"planId":52400037,"planName":"123","isPaused":0,"frontState":4,"isPromotionAbnormal":false,"planType":0,"budget":-1,"budgetUnlimited":true,"ideaShowMode":1,"period":"100-124;200-224;300-324;400-424;500-524;600-624;700-724","region":"使用账户地域设置","useAccountRegion":1,"useAllRegion":0,"useIntentLocate":1,"ipBlack":"222.161.70.13\n111.161.70.14\n111.161.70.15\n111.161.70.16\n114.255.51.250\n221.122.121.142\n222.130.13.49\n61.148.52.226","negWord":"","negQuery":"","exbudget":0,"targetUserTracking":1,"ocpcConfig":{"planId":0,"optTarget":"OPT_TARGET_CPC","convertId":0,"convertType":0,"convertDataYuan":0,"phase":0,"paused":false},"id":52400037,"level":2},{"userId":1061,"showNum":-1,"clickNum":-1,"convertNum":-1,"consume":-1,"clickRatio":"-","cpc":"-","convertRatio":0,"planId":52500058,"planName":"2018-08-15-184558-初始化计划","isPaused":0,"frontState":4,"isPromotionAbnormal":false,"planType":0,"budget":-1,"budgetUnlimited":true,"ideaShowMode":0,"period":"100-124;200-224;300-324;400-424;500-524;600-624;700-724","region":"使用账户地域设置","useAccountRegion":1,"useAllRegion":0,"useIntentLocate":0,"ipBlack":"222.161.70.13\n111.161.70.14\n111.161.70.15\n111.161.70.16\n114.255.51.250\n221.122.121.142\n222.130.13.49\n61.148.52.226","negWord":"","negQuery":"","exbudget":0,"targetUserTracking":1,"ocpcConfig":{"planId":0,"optTarget":"OPT_TARGET_CPC","convertId":0,"convertType":0,"convertDataYuan":0,"phase":0,"paused":false},"id":52500058,"level":2},{"userId":1061,"showNum":-1,"clickNum":-1,"convertNum":-1,"consume":-1,"clickRatio":"-","cpc":"-","convertRatio":0,"planId":52500059,"planName":"2018-08-15-185806-初始化计划","isPaused":0,"frontState":4,"isPromotionAbnormal":false,"planType":0,"budget":-1,"budgetUnlimited":true,"ideaShowMode":0,"period":"100-124;200-224;300-324;400-424;500-524;600-624;700-724","region":"使用账户地域设置","useAccountRegion":1,"useAllRegion":0,"useIntentLocate":0,"ipBlack":"222.161.70.13\n111.161.70.14\n111.161.70.15\n111.161.70.16\n114.255.51.250\n221.122.121.142\n222.130.13.49\n61.148.52.226","negWord":"","negQuery":"","exbudget":0,"targetUserTracking":1,"ocpcConfig":{"planId":0,"optTarget":"OPT_TARGET_CPC","convertId":0,"convertType":0,"convertDataYuan":0,"phase":0,"paused":false},"id":52500059,"level":2},{"userId":1061,"showNum":-1,"clickNum":-1,"convertNum":-1,"consume":-1,"clickRatio":"-","cpc":"-","convertRatio":0,"planId":52500060,"planName":"2018-08-15-185829-初始化计划","isPaused":0,"frontState":4,"isPromotionAbnormal":false,"planType":0,"budget":-1,"budgetUnlimited":true,"ideaShowMode":0,"period":"100-124;200-224;300-324;400-424;500-524;600-624;700-724","region":"使用账户地域设置","useAccountRegion":1,"useAllRegion":0,"useIntentLocate":0,"ipBlack":"222.161.70.13\n111.161.70.14\n111.161.70.15\n111.161.70.16\n114.255.51.250\n221.122.121.142\n222.130.13.49\n61.148.52.226","negWord":"","negQuery":"","exbudget":0,"targetUserTracking":1,"ocpcConfig":{"planId":0,"optTarget":"OPT_TARGET_CPC","convertId":0,"convertType":0,"convertDataYuan":0,"phase":0,"paused":false},"id":52500060,"level":2},{"userId":1061,"showNum":-1,"clickNum":-1,"convertNum":-1,"consume":-1,"clickRatio":"-","cpc":"-","convertRatio":0,"planId":52500061,"planName":"2018-08-15-202357-初始化计划","isPaused":0,"frontState":4,"isPromotionAbnormal":false,"planType":0,"budget":-1,"budgetUnlimited":true,"ideaShowMode":0,"period":"100-124;200-224;300-324;400-424;500-524;600-624;700-724","region":"使用账户地域设置","useAccountRegion":1,"useAllRegion":0,"useIntentLocate":0,"ipBlack":"222.161.70.13\n111.161.70.14\n111.161.70.15\n111.161.70.16\n114.255.51.250\n221.122.121.142\n222.130.13.49\n61.148.52.226","negWord":"","negQuery":"","exbudget":0,"targetUserTracking":1,"ocpcConfig":{"planId":0,"optTarget":"OPT_TARGET_CPC","convertId":0,"convertType":0,"convertDataYuan":0,"phase":0,"paused":false},"id":52500061,"level":2},{"userId":1061,"showNum":-1,"clickNum":-1,"convertNum":-1,"consume":-1,"clickRatio":"-","cpc":"-","convertRatio":0,"planId":52500062,"planName":"2018-08-15-202809-初始化计划","isPaused":0,"frontState":4,"isPromotionAbnormal":false,"planType":0,"budget":-1,"budgetUnlimited":true,"ideaShowMode":0,"period":"100-124;200-224;300-324;400-424;500-524;600-624;700-724","region":"使用账户地域设置","useAccountRegion":1,"useAllRegion":0,"useIntentLocate":0,"ipBlack":"222.161.70.13\n111.161.70.14\n111.161.70.15\n111.161.70.16\n114.255.51.250\n221.122.121.142\n222.130.13.49\n61.148.52.226","negWord":"","negQuery":"","exbudget":0,"targetUserTracking":1,"ocpcConfig":{"planId":0,"optTarget":"OPT_TARGET_CPC","convertId":0,"convertType":0,"convertDataYuan":0,"phase":0,"paused":false},"id":52500062,"level":2},{"userId":1061,"showNum":-1,"clickNum":-1,"convertNum":-1,"consume":-1,"clickRatio":"-","cpc":"-","convertRatio":0,"planId":52500063,"planName":"2018-08-17-140105-初始化计划","isPaused":0,"frontState":4,"isPromotionAbnormal":false,"planType":0,"budget":-1,"budgetUnlimited":true,"ideaShowMode":0,"period":"100-124;200-224;300-324;400-424;500-524;600-624;700-724","region":"使用账户地域设置","useAccountRegion":1,"useAllRegion":0,"useIntentLocate":0,"ipBlack":"222.161.70.13\n111.161.70.14\n111.161.70.15\n111.161.70.16\n114.255.51.250\n221.122.121.142\n222.130.13.49\n61.148.52.226","negWord":"","negQuery":"","exbudget":0,"targetUserTracking":1,"ocpcConfig":{"planId":0,"optTarget":"OPT_TARGET_CPC","convertId":0,"convertType":0,"convertDataYuan":0,"phase":0,"paused":false},"id":52500063,"level":2},{"userId":1061,"showNum":-1,"clickNum":-1,"convertNum":-1,"consume":-1,"clickRatio":"-","cpc":"-","convertRatio":0,"planId":52300384,"planName":"2222","isPaused":0,"frontState":4,"isPromotionAbnormal":false,"planType":0,"budget":-1,"budgetUnlimited":true,"ideaShowMode":1,"period":"100-124;200-224;300-324;400-424;500-524;600-624;700-724","region":"使用账户地域设置","useAccountRegion":1,"useAllRegion":0,"useIntentLocate":1,"ipBlack":"222.161.70.13\n111.161.70.14\n111.161.70.15\n111.161.70.16\n114.255.51.250\n221.122.121.142\n222.130.13.49\n61.148.52.226","negWord":"","negQuery":"","exbudget":0,"targetUserTracking":1,"ocpcConfig":{"id":9416,"planId":52300384,"optTarget":"OPT_TARGET_ROI","convertId":3592,"convertType":1,"convertName":"3333","convertDataYuan":330,"phase":1,"paused":true},"id":52300384,"level":2},{"userId":1061,"showNum":-1,"clickNum":-1,"convertNum":-1,"consume":-1,"clickRatio":"-","cpc":"-","convertRatio":0,"planId":52600022,"planName":"56","isPaused":0,"frontState":4,"isPromotionAbnormal":true,"planType":0,"budget":-1,"budgetUnlimited":true,"ideaShowMode":1,"period":"100-124;200-224;300-324;400-424;500-524;600-624;700-724","region":"使用账户地域设置","useAccountRegion":1,"useAllRegion":0,"useIntentLocate":1,"ipBlack":"","negWord":"","negQuery":"","exbudget":0,"targetUserTracking":1,"ocpcConfig":{"planId":0,"optTarget":"OPT_TARGET_CPC","convertId":0,"convertType":0,"convertDataYuan":0,"phase":0,"paused":false},"id":52600022,"level":2},{"userId":1061,"showNum":-1,"clickNum":-1,"convertNum":-1,"consume":-1,"clickRatio":"-","cpc":"-","convertRatio":0,"planId":52600026,"planName":"OCPC-1","isPaused":0,"frontState":4,"isPromotionAbnormal":true,"planType":0,"budget":-1,"budgetUnlimited":true,"ideaShowMode":1,"period":"100-124;200-224;300-324;400-424;500-524;600-624;700-724","region":"使用账户地域设置","useAccountRegion":1,"useAllRegion":0,"useIntentLocate":1,"ipBlack":"","negWord":"","negQuery":"","exbudget":0,"targetUserTracking":1,"ocpcConfig":{"planId":0,"optTarget":"OPT_TARGET_CPC","convertId":0,"convertType":0,"convertDataYuan":0,"phase":0,"paused":false},"id":52600026,"level":2},{"userId":1061,"showNum":-1,"clickNum":-1,"convertNum":-1,"consume":-1,"clickRatio":"-","cpc":"-","convertRatio":0,"planId":52300418,"planName":"json模板测试","isPaused":0,"frontState":4,"isPromotionAbnormal":false,"planType":0,"budget":-1,"budgetUnlimited":true,"ideaShowMode":1,"period":"100-124;200-224;300-324;400-424;500-524;600-624;700-724","region":"使用账户地域设置","useAccountRegion":1,"useAllRegion":0,"useIntentLocate":1,"ipBlack":"222.161.70.13\n111.161.70.14\n111.161.70.15\n111.161.70.16\n114.255.51.250\n221.122.121.142\n222.130.13.49\n61.148.52.226","negWord":"","negQuery":"","exbudget":0,"targetUserTracking":1,"ocpcConfig":{"id":9418,"planId":52300418,"optTarget":"OPT_TARGET_ROI","convertId":3592,"convertType":1,"convertName":"3333","convertDataYuan":330,"phase":1,"paused":true},"id":52300418,"level":2},{"userId":1061,"showNum":-1,"clickNum":-1,"convertNum":-1,"consume":-1,"clickRatio":"-","cpc":"-","convertRatio":0,"planId":52600021,"planName":"sss","isPaused":0,"frontState":4,"isPromotionAbnormal":true,"planType":0,"budget":-1,"budgetUnlimited":true,"ideaShowMode":1,"period":"100-124;200-224;300-324;400-424;500-524;600-624;700-724","region":"使用账户地域设置","useAccountRegion":1,"useAllRegion":0,"useIntentLocate":1,"ipBlack":"","negWord":"","negQuery":"","exbudget":0,"targetUserTracking":1,"ocpcConfig":{"planId":0,"optTarget":"OPT_TARGET_CPC","convertId":0,"convertType":0,"convertDataYuan":0,"phase":0,"paused":false},"id":52600021,"level":2},{"userId":1061,"showNum":-1,"clickNum":-1,"convertNum":-1,"consume":-1,"clickRatio":"-","cpc":"-","convertRatio":0,"planId":52400000,"planName":"sunyang","isPaused":0,"frontState":4,"isPromotionAbnormal":false,"planType":0,"budget":-1,"budgetUnlimited":true,"ideaShowMode":1,"period":"100-124;200-224;300-324;400-424;500-524;600-624;700-724","region":"使用账户地域设置","useAccountRegion":1,"useAllRegion":0,"useIntentLocate":1,"ipBlack":"222.161.70.13\n111.161.70.14\n111.161.70.15\n111.161.70.16\n114.255.51.250\n221.122.121.142\n222.130.13.49\n61.148.52.226","negWord":"","negQuery":"","exbudget":0,"targetUserTracking":1,"ocpcConfig":{"planId":0,"optTarget":"OPT_TARGET_CPC","convertId":0,"convertType":0,"convertDataYuan":0,"phase":0,"paused":false},"id":52400000,"level":2}],"tip":"投放效果数据显示出问题了，我们正在抓紧修复，您的投放不受影响哈~"},"success":true}